simulation/qsim/mul3Bit.msim.vcd
$comment
	File created using the following command:
		vcd file mul3Bit.msim.vcd -direction
$end
$date
	Tue Dec 02 18:50:32 2025
$end
$version
	ModelSim Version 10.1d
$end
$timescale
	1ps
$end
$scope module mul3Bit_vlg_vec_tst $end
$var reg 3 ! A [2:0] $end
$var reg 3 " B [2:0] $end
$var wire 1 # S [5] $end
$var wire 1 $ S [4] $end
$var wire 1 % S [3] $end
$var wire 1 & S [2] $end
$var wire 1 ' S [1] $end
$var wire 1 ( S [0] $end
$var wire 1 ) sampler $end
$scope module i1 $end
$var wire 1 * gnd $end
$var wire 1 + vcc $end
$var wire 1 , unknown $end
$var tri1 1 - devclrn $end
$var tri1 1 . devpor $end
$var tri1 1 / devoe $end
$var wire 1 0 inst2|inst5~0_combout $end
$var wire 1 1 inst18|inst1~0_combout $end
$var wire 1 2 inst16|inst5~3_combout $end
$var wire 1 3 inst16|inst5~6_combout $end
$var wire 1 4 inst9~combout $end
$var wire 1 5 inst4|inst1~combout $end
$var wire 1 6 inst4|inst5~0_combout $end
$var wire 1 7 inst12~combout $end
$var wire 1 8 inst11~combout $end
$var wire 1 9 inst6~combout $end
$var wire 1 : inst21|inst1~combout $end
$var wire 1 ; inst18|inst1~combout $end
$var wire 1 < inst16|inst1~combout $end
$var wire 1 = inst19|inst21~combout $end
$var wire 1 > inst2|inst1~combout $end
$var wire 1 ? inst18|inst21~combout $end
$var wire 1 @ inst21|inst21~combout $end
$var wire 1 A inst~combout $end
$var wire 1 B B~combout [2] $end
$var wire 1 C B~combout [1] $end
$var wire 1 D B~combout [0] $end
$var wire 1 E A~combout [2] $end
$var wire 1 F A~combout [1] $end
$var wire 1 G A~combout [0] $end
$upscope $end
$upscope $end
$enddefinitions $end
#0
$dumpvars
b11 !
b100 "
0(
0'
1&
1%
0$
0#
x)
0*
1+
x,
1-
1.
1/
00
01
02
03
04
15
06
07
18
09
0:
0;
0<
1=
1>
1?
0@
0A
0D
0C
1B
1G
1F
0E
$end
#20000
b1 !
b0 !
b0 "
b10 "
b11 "
1D
1C
0B
0G
0F
0)
08
05
0>
0=
0?
0%
0&
#40000
b10 !
b111 "
b101 "
b100 "
0D
0C
1B
1F
1)
15
1=
1%
#60000
b11 !
b1 !
b0 "
b10 "
1C
0B
1G
0F
0)
1@
05
0=
1'
0%
#80000
b101 !
b100 !
b110 !
0G
1F
1E
1)
0@
12
19
14
1>
15
0'
1?
1=
1&
1%
#100000
b111 !
1G
0)
1@
1'
#120000
b11 "
b11 !
b1 !
b0 !
0G
0F
0E
1D
1)
0@
02
09
04
0>
05
0'
0?
0=
0&
0%
#140000
b10 "
b100 !
1E
0D
0)
14
15
1=
1%
#160000
b0 "
b110 !
b1 "
1F
1D
0C
1)
1@
1>
11
04
1?
05
1'
0=
1&
0%
#180000
b101 "
b100 !
0F
1B
0)
0@
17
1<
0'
1$
#200000
b0 !
b111 "
b10 !
1C
1F
0E
1)
1@
19
12
15
0>
07
01
1>
1=
0<
0?
1'
1?
1%
0$
0&
1&
#220000
b110 "
b110 !
b100 "
b100 !
0F
1E
0D
0C
0)
0@
09
05
02
17
13
0>
0=
1<
03
0'
1#
0?
0%
1$
0#
0&
#240000
b101 "
b111 "
1D
1C
1)
1>
11
14
1?
15
1=
1&
1%
#260000
b0 !
0E
0)
0>
07
04
01
0?
0<
05
0=
0&
0$
0%
#280000
b110 "
b100 "
0D
0C
1)
#300000
b1 !
b0 "
b11 !
b1 "
b11 "
1D
1C
0B
1G
1F
0)
1A
1:
12
19
1?
1;
1>
1(
1=
0?
1&
1%
0&
#320000
b10 !
b111 "
b0 !
b110 "
0D
1B
0G
0F
1)
0A
0:
02
09
1?
0;
0>
0(
0=
0?
1&
0%
0&
#340000
b1 !
b10 "
b11 !
0B
1G
1F
0)
1@
12
19
1>
1'
1?
1&
#360000
b11 "
b10 !
b111 "
b0 !
0G
0F
1D
1B
1)
0@
02
09
0>
0'
0?
0&
#380000
b100 !
b110 "
b101 !
b10 "
b111 !
0D
0B
1G
1F
1E
0)
1@
12
19
14
1>
15
1'
1?
1=
1&
1%
#400000
b0 "
0C
1)
0@
09
04
02
0>
05
0'
0?
0=
0&
0%
#420000
b110 !
b100 "
b100 !
1B
0G
0F
0)
17
1<
1$
#440000
b0 !
b101 "
b111 "
b11 "
b10 !
1D
1C
0B
1F
0E
1)
1@
12
19
07
1>
0<
1'
1?
0$
1&
#460000
b10 "
b0 "
0D
0C
0)
0@
02
09
0>
0'
0?
0&
#480000
b11 !
b111 !
b101 !
b1 "
1D
1G
0F
1E
1)
1A
1>
11
1?
1(
1&
#500000
b100 !
b0 !
b0 "
0D
0G
0E
0)
0A
0>
01
0?
0(
0&
#520000
b100 "
b10 !
b11 !
b111 !
1G
1F
1E
1B
1)
18
15
17
1>
1=
1<
1?
1%
1$
1&
#540000
b110 "
b10 "
b101 !
b1 !
0F
0E
1C
0B
0)
1@
05
07
08
0=
0<
0>
1'
0?
0%
0$
0&
#560000
b0 !
0G
1)
0@
0'
#580000
b11 "
b1 "
b101 "
b10 !
1F
1D
0C
1B
0)
1@
15
1=
1'
1%
#600000
b110 !
b111 !
b100 "
b110 "
b10 "
b101 !
0D
1C
0B
1G
0F
1E
1)
14
05
15
0=
1=
0%
1%
#620000
b1 !
b11 !
1F
0E
0)
19
12
04
1>
05
1?
0=
1&
0%
#640000
b1 !
0F
1)
09
02
0>
0?
0&
#660000
b0 !
b11 "
b1 "
b101 "
b100 !
b110 !
1D
0C
1B
0G
1F
1E
0)
1>
11
17
15
1?
1<
1=
1&
1$
1%
#680000
b10 !
b0 !
0F
0E
1)
0@
05
0>
07
01
0=
0<
0?
0'
0%
0$
0&
#700000
b100 "
b0 "
b10 !
1F
0D
0B
0)
#720000
b11 !
b10 "
1C
1G
1)
1@
19
12
1>
1'
1?
1&
#740000
b111 !
b11 "
b101 !
b100 !
1D
0G
0F
1E
0)
0@
0>
02
11
10
09
14
0?
16
1>
00
0'
1<
1?
06
15
0&
0<
1=
1$
1&
0$
1%
#760000
b111 "
b101 "
b0 !
b100 "
b1 !
1G
0E
0D
0C
1B
1)
18
0>
04
01
1>
0?
05
1?
0=
0&
1&
0%
#780000
b11 !
b110 "
b111 !
b111 "
b110 !
1D
1C
0G
1F
1E
0)
1@
0>
12
11
10
19
14
08
15
17
0?
13
16
1=
1<
1'
0<
0&
1#
1%
1$
0$
#800000
b11 "
b100 !
b0 !
0F
0E
0B
1)
0@
09
05
02
1>
07
04
03
01
00
0>
0=
1<
1?
06
0'
0#
0?
0<
0%
1$
1&
0&
0$
#820000
b1 "
b0 "
b100 !
1E
0D
0C
0)
#840000
b101 !
b100 "
b110 "
b1 !
1C
1B
1G
0E
1)
1@
18
1>
1'
1?
1&
#860000
b111 "
b101 "
1D
0C
0)
1A
0@
1(
0'
#880000
b11 !
1F
1)
1@
15
12
1=
1'
1%
#900000
b1 "
0B
0)
08
05
0>
0=
0?
0%
0&
#920000
b10 !
b0 "
b10 "
0D
1C
0G
1)
0A
0@
19
1>
0(
0'
1?
1&
#940000
b110 "
b100 "
0C
1B
0)
09
02
15
0>
1=
0?
1%
0&
#960000
b110 !
b100 !
b101 !
b101 "
b1 "
b11 "
1D
1C
0B
1G
0F
1E
1)
1A
1@
1>
12
11
14
05
1?
15
0=
1(
1'
1=
1&
0%
1%
#980000
b111 !
b110 !
b111 "
1B
0G
1F
0)
17
16
05
13
0A
19
0=
0>
10
1#
0(
0?
15
0%
1=
0&
1%
